[gd_resource type="Resource" script_class="WeaponData" load_steps=3 format=3 uid="uid://vs7ypqgoolp6"]

[ext_resource type="Texture2D" uid="uid://djqei7mr34kvd" path="res://combat/weapons/assets/weapons.png" id="1_i74s5"]
[ext_resource type="Script" path="res://combat/weapons/weapon_data.gd" id="2_6wjdc"]

[resource]
script = ExtResource("2_6wjdc")
prefix = "Death's"
name = "Axe"
level = 6
atlas = ExtResource("1_i74s5")
sprite_size = Vector2(16, 16)
sprite_index = Vector2(9, 27)
sprite_offset = Vector2(13, 0)
scale = 3.0
flip_v = true
hitbox_size = Vector2(19, 5)
hitbox_offset = Vector2(13, 0)
angle_range = 180.0
base_speed = 0.5
base_damage = 2.0
