[gd_scene load_steps=7 format=3 uid="uid://baqrildv0t1pc"]

[ext_resource type="Script" path="res://combat/projectiles/scripts/fire_skull_projectile.gd" id="1_iojsd"]
[ext_resource type="Texture2D" uid="uid://esv0jmfpncif" path="res://mobs/fire_skull/assets/fire_skull_fireball.png" id="2_3yymo"]

[sub_resource type="Animation" id="Animation_p3j4l"]
length = 0.001
tracks/0/type = "value"
tracks/0/imported = false
tracks/0/enabled = true
tracks/0/path = NodePath("Sprite2D:frame")
tracks/0/interp = 1
tracks/0/loop_wrap = true
tracks/0/keys = {
"times": PackedFloat32Array(0),
"transitions": PackedFloat32Array(1),
"update": 1,
"values": [4]
}
tracks/1/type = "value"
tracks/1/imported = false
tracks/1/enabled = true
tracks/1/path = NodePath("CollisionShape2D:position")
tracks/1/interp = 1
tracks/1/loop_wrap = true
tracks/1/keys = {
"times": PackedFloat32Array(0),
"transitions": PackedFloat32Array(1),
"update": 0,
"values": [Vector2(5.5, 0)]
}
tracks/2/type = "value"
tracks/2/imported = false
tracks/2/enabled = true
tracks/2/path = NodePath("CollisionShape2D:scale")
tracks/2/interp = 1
tracks/2/loop_wrap = true
tracks/2/keys = {
"times": PackedFloat32Array(0),
"transitions": PackedFloat32Array(1),
"update": 0,
"values": [Vector2(0.8, 0.8)]
}

[sub_resource type="Animation" id="Animation_uitk0"]
resource_name = "shoot"
length = 2.8
tracks/0/type = "value"
tracks/0/imported = false
tracks/0/enabled = true
tracks/0/path = NodePath("Sprite2D:frame")
tracks/0/interp = 1
tracks/0/loop_wrap = true
tracks/0/keys = {
"times": PackedFloat32Array(0, 0.2, 0.4, 0.6, 0.8, 1, 1.2, 1.4, 1.6, 1.8, 2, 2.2, 2.4, 2.6, 2.7, 2.8, 2.9),
"transitions": PackedFloat32Array(1, 1, 1, 1, 1, 1, 1, 1, 1, 1, 1, 1, 1, 1, 1, 1, 1),
"update": 1,
"values": [3, 4, 5, 6, 7, 4, 5, 6, 7, 4, 5, 6, 7, 8, 9, 10, 11]
}
tracks/1/type = "value"
tracks/1/imported = false
tracks/1/enabled = true
tracks/1/path = NodePath("CollisionShape2D:position")
tracks/1/interp = 1
tracks/1/loop_wrap = true
tracks/1/keys = {
"times": PackedFloat32Array(0, 0.2, 2.6),
"transitions": PackedFloat32Array(1, 1, 1),
"update": 1,
"values": [Vector2(5.5, 0), Vector2(0, 0), Vector2(-1, 0)]
}
tracks/2/type = "value"
tracks/2/imported = false
tracks/2/enabled = true
tracks/2/path = NodePath("CollisionShape2D:scale")
tracks/2/interp = 1
tracks/2/loop_wrap = true
tracks/2/keys = {
"times": PackedFloat32Array(0, 0.2, 2.6, 2.8),
"transitions": PackedFloat32Array(1, 1, 1, 1),
"update": 1,
"values": [Vector2(0.6, 0.6), Vector2(0.8, 0.8), Vector2(1.2, 1.2), Vector2(1.6, 1.6)]
}

[sub_resource type="AnimationLibrary" id="AnimationLibrary_we1qx"]
_data = {
"RESET": SubResource("Animation_p3j4l"),
"shoot": SubResource("Animation_uitk0")
}

[sub_resource type="CircleShape2D" id="CircleShape2D_kamf4"]
radius = 6.875

[node name="FireSkullProjectile" type="Area2D"]
script = ExtResource("1_iojsd")
_speed = 2.0
_damage = 5.0

[node name="Sprite2D" type="Sprite2D" parent="."]
modulate = Color(1, 1, 1, 0.815686)
texture = ExtResource("2_3yymo")
hframes = 12
frame = 4

[node name="AnimationPlayer" type="AnimationPlayer" parent="."]
libraries = {
"": SubResource("AnimationLibrary_we1qx")
}

[node name="CollisionShape2D" type="CollisionShape2D" parent="."]
position = Vector2(5.5, 0)
scale = Vector2(0.8, 0.8)
shape = SubResource("CircleShape2D_kamf4")
debug_color = Color(0.85098, 0.368627, 0.133333, 0.419608)

[connection signal="animation_finished" from="AnimationPlayer" to="." method="_on_animation_player_animation_finished"]
