[gd_scene load_steps=7 format=3 uid="uid://c1l3g7vvubmpl"]

[ext_resource type="Script" path="res://combat/projectiles/scripts/stinkfly_projectile.gd" id="1_ectvp"]
[ext_resource type="Texture2D" uid="uid://bg7vcdcajoon8" path="res://mobs/stinkfly/assets/Monster4Pack.png" id="2_ac1hq"]

[sub_resource type="Animation" id="Animation_qnr1p"]
length = 0.001
tracks/0/type = "value"
tracks/0/imported = false
tracks/0/enabled = true
tracks/0/path = NodePath("Sprite2D:frame")
tracks/0/interp = 1
tracks/0/loop_wrap = true
tracks/0/keys = {
"times": PackedFloat32Array(0),
"transitions": PackedFloat32Array(1),
"update": 1,
"values": [35]
}
tracks/1/type = "value"
tracks/1/imported = false
tracks/1/enabled = true
tracks/1/path = NodePath("CollisionShape2D:scale")
tracks/1/interp = 1
tracks/1/loop_wrap = true
tracks/1/keys = {
"times": PackedFloat32Array(0),
"transitions": PackedFloat32Array(1),
"update": 0,
"values": [Vector2(1.2, 1.2)]
}
tracks/2/type = "value"
tracks/2/imported = false
tracks/2/enabled = true
tracks/2/path = NodePath("CollisionShape2D:position")
tracks/2/interp = 1
tracks/2/loop_wrap = true
tracks/2/keys = {
"times": PackedFloat32Array(0),
"transitions": PackedFloat32Array(1),
"update": 0,
"values": [Vector2(-3, 2)]
}

[sub_resource type="Animation" id="Animation_fgyjx"]
resource_name = "shoot"
length = 2.5
tracks/0/type = "value"
tracks/0/imported = false
tracks/0/enabled = true
tracks/0/path = NodePath("Sprite2D:frame")
tracks/0/interp = 1
tracks/0/loop_wrap = true
tracks/0/keys = {
"times": PackedFloat32Array(0, 0.3, 0.6, 0.9, 1.2, 1.5, 1.7, 1.9, 2.1, 2.3, 2.5),
"transitions": PackedFloat32Array(1, 1, 1, 1, 1, 1, 1, 1, 1, 1, 1),
"update": 1,
"values": [35, 36, 37, 35, 36, 37, 38, 39, 40, 41, 42]
}
tracks/1/type = "value"
tracks/1/imported = false
tracks/1/enabled = true
tracks/1/path = NodePath("CollisionShape2D:position")
tracks/1/interp = 1
tracks/1/loop_wrap = true
tracks/1/keys = {
"times": PackedFloat32Array(0, 1.7),
"transitions": PackedFloat32Array(1, 1),
"update": 1,
"values": [Vector2(0, 0), Vector2(-3, 2)]
}
tracks/2/type = "value"
tracks/2/imported = false
tracks/2/enabled = true
tracks/2/path = NodePath("CollisionShape2D:scale")
tracks/2/interp = 1
tracks/2/loop_wrap = true
tracks/2/keys = {
"times": PackedFloat32Array(0, 1.7, 2.1, 2.3),
"transitions": PackedFloat32Array(1, 1, 1, 1),
"update": 1,
"values": [Vector2(1, 1), Vector2(1.2, 1.2), Vector2(1.7, 1.7), Vector2(2, 2)]
}

[sub_resource type="AnimationLibrary" id="AnimationLibrary_n1xru"]
_data = {
"RESET": SubResource("Animation_qnr1p"),
"shoot": SubResource("Animation_fgyjx")
}

[sub_resource type="CircleShape2D" id="CircleShape2D_pnjks"]

[node name="StinkflyProjectile" type="Area2D"]
script = ExtResource("1_ectvp")
_speed = 1.5
_damage = 7.0

[node name="Sprite2D" type="Sprite2D" parent="."]
modulate = Color(1, 1, 1, 0.815686)
texture = ExtResource("2_ac1hq")
hframes = 4
vframes = 11
frame = 35

[node name="AnimationPlayer" type="AnimationPlayer" parent="."]
libraries = {
"": SubResource("AnimationLibrary_n1xru")
}

[node name="CollisionShape2D" type="CollisionShape2D" parent="."]
position = Vector2(-3, 2)
scale = Vector2(1.2, 1.2)
shape = SubResource("CircleShape2D_pnjks")
debug_color = Color(0.85098, 0.368627, 0.133333, 0.419608)

[connection signal="animation_finished" from="AnimationPlayer" to="." method="_on_animation_player_animation_finished"]
