[gd_scene load_steps=3 format=3 uid="uid://briphmjp430e"]

[ext_resource type="PackedScene" uid="uid://b1cyhlvrdvo2k" path="res://map/tile_scenes/generic_object.tscn" id="1_81s67"]
[ext_resource type="Texture2D" uid="uid://dr1t16kl8gcdh" path="res://map/assets/plants.png" id="2_mm53w"]

[node name="Plant" instance=ExtResource("1_81s67")]

[node name="Sprite2D" parent="." index="0"]
texture = ExtResource("2_mm53w")
offset = Vector2(0, -17)
region_enabled = true
region_rect = Rect2(256, 160, 96, 96)

[node name="Shadow" parent="Sprite2D" index="0"]
texture = ExtResource("2_mm53w")
offset = Vector2(0, -16)
region_enabled = true
region_rect = Rect2(256, 160, 96, 96)

[node name="CollisionShape2D" parent="StaticBody2D" index="0"]
disabled = true
