[gd_scene load_steps=4 format=3 uid="uid://dvctr5y1j5qqc"]

[ext_resource type="PackedScene" uid="uid://b1cyhlvrdvo2k" path="res://map/tile_scenes/generic_object.tscn" id="1_dwdqw"]
[ext_resource type="Texture2D" uid="uid://dmmusutnv4fuk" path="res://map/assets/props.png" id="2_2ugfh"]

[sub_resource type="RectangleShape2D" id="RectangleShape2D_q31bt"]
size = Vector2(26, 18.5)

[node name="Object" instance=ExtResource("1_dwdqw")]

[node name="Sprite2D" parent="." index="0"]
texture = ExtResource("2_2ugfh")
offset = Vector2(0, -29)
region_enabled = true
region_rect = Rect2(160, 128, 32, 64)

[node name="Shadow" parent="Sprite2D" index="0"]
texture = ExtResource("2_2ugfh")
offset = Vector2(0, -26)
region_enabled = true
region_rect = Rect2(160, 128, 32, 64)

[node name="StaticBody2D" parent="." index="1"]
position = Vector2(0, -9)

[node name="CollisionShape2D" parent="StaticBody2D" index="0"]
shape = SubResource("RectangleShape2D_q31bt")
