[gd_scene load_steps=3 format=3 uid="uid://biyt2quxh0twx"]

[ext_resource type="PackedScene" uid="uid://b1cyhlvrdvo2k" path="res://map/tile_scenes/generic_object.tscn" id="1_st6tm"]
[ext_resource type="Texture2D" uid="uid://dmmusutnv4fuk" path="res://map/assets/props.png" id="2_v8dg6"]

[node name="Object" instance=ExtResource("1_st6tm")]

[node name="Sprite2D" parent="." index="0"]
texture = ExtResource("2_v8dg6")
offset = Vector2(0, -8)
region_enabled = true
region_rect = Rect2(64, 480, 32, 32)

[node name="Shadow" parent="Sprite2D" index="0"]
texture = ExtResource("2_v8dg6")
offset = Vector2(0, -8)
region_enabled = true
region_rect = Rect2(64, 480, 32, 32)

[node name="CollisionShape2D" parent="StaticBody2D" index="0"]
disabled = true
