[gd_scene load_steps=4 format=3 uid="uid://d3r66m7gl7u7b"]

[ext_resource type="PackedScene" uid="uid://b1cyhlvrdvo2k" path="res://map/tile_scenes/generic_object.tscn" id="1_gxpou"]
[ext_resource type="Texture2D" uid="uid://dmmusutnv4fuk" path="res://map/assets/props.png" id="2_n73d4"]

[sub_resource type="RectangleShape2D" id="RectangleShape2D_q31bt"]
size = Vector2(8, 8)

[node name="Object" instance=ExtResource("1_gxpou")]

[node name="Sprite2D" parent="." index="0"]
texture = ExtResource("2_n73d4")
offset = Vector2(1, -16)
region_enabled = true
region_rect = Rect2(96, 160, 32, 32)

[node name="Shadow" parent="Sprite2D" index="0"]
texture = ExtResource("2_n73d4")
offset = Vector2(1, -16)
region_enabled = true
region_rect = Rect2(96, 160, 32, 32)

[node name="StaticBody2D" parent="." index="1"]
position = Vector2(-1, -3)

[node name="CollisionShape2D" parent="StaticBody2D" index="0"]
position = Vector2(1, 0)
shape = SubResource("RectangleShape2D_q31bt")
