[gd_scene load_steps=3 format=3 uid="uid://cjbjn2lky58w"]

[ext_resource type="PackedScene" uid="uid://b1cyhlvrdvo2k" path="res://map/tile_scenes/generic_object.tscn" id="1_c8pik"]
[ext_resource type="Texture2D" uid="uid://dmmusutnv4fuk" path="res://map/assets/props.png" id="2_vkdwl"]

[node name="Object" instance=ExtResource("1_c8pik")]

[node name="Sprite2D" parent="." index="0"]
texture = ExtResource("2_vkdwl")
offset = Vector2(0, -5)
region_enabled = true
region_rect = Rect2(0, 480, 32, 32)

[node name="Shadow" parent="Sprite2D" index="0"]
texture = ExtResource("2_vkdwl")
offset = Vector2(0, -5)
region_enabled = true
region_rect = Rect2(0, 480, 32, 32)

[node name="CollisionShape2D" parent="StaticBody2D" index="0"]
disabled = true
