[gd_resource type="Resource" script_class="WeaponData" load_steps=3 format=3 uid="uid://btkr8akn5slor"]

[ext_resource type="Texture2D" uid="uid://djqei7mr34kvd" path="res://combat/weapons/assets/weapons.png" id="1_mng4l"]
[ext_resource type="Script" path="res://combat/weapons/weapon_data.gd" id="2_kg7hf"]

[resource]
script = ExtResource("2_kg7hf")
prefix = "Wooden"
name = "Staff"
level = 1
atlas = ExtResource("1_mng4l")
sprite_size = Vector2(16, 16)
sprite_index = Vector2(12, 15)
sprite_offset = Vector2(14, 0)
scale = 3.0
flip_v = true
hitbox_size = Vector2(18, 2)
hitbox_offset = Vector2(13, 0)
angle_range = 225.0
base_speed = 1.0
base_damage = 0.5
