[gd_scene load_steps=2 format=3 uid="uid://bwj6rdgxwux86"]

[ext_resource type="Script" path="res://mobs/hord_spawner/script/horde_spawner.gd" id="1_mkedg"]

[node name="HordSpawner" type="Node2D"]
script = ExtResource("1_mkedg")
_horde_size = Array[int]([20, 40, 60, 80, 100, 120, 140, 160, 180, 200])
monster_probability_dict = {
"Bloater": [0.2, 0.2, 0.2, 0.2, 0.2, 0.2, 0.2, 0.2, 0.2, 0.2],
"FireSkull": [0.2, 0.2, 0.2, 0.2, 0.2, 0.2, 0.2, 0.2, 0.2, 0.2],
"Goblin": [0.2, 0.2, 0.2, 0.2, 0.2, 0.2, 0.2, 0.2, 0.2, 0.2],
"Scratcher": [0.2, 0.2, 0.2, 0.2, 0.2, 0.2, 0.2, 0.2, 0.2, 0.2],
"Stinkfly": [0.2, 0.2, 0.2, 0.2, 0.2, 0.2, 0.2, 0.2, 0.2, 0.2]
}
