[gd_resource type="Resource" script_class="WeaponData" load_steps=3 format=3 uid="uid://83ypwvuknvh8"]

[ext_resource type="Texture2D" uid="uid://djqei7mr34kvd" path="res://combat/weapons/assets/weapons.png" id="1_lpc01"]
[ext_resource type="Script" path="res://combat/weapons/weapon_data.gd" id="2_0kbvu"]

[resource]
script = ExtResource("2_0kbvu")
prefix = "King's"
name = "Hammer"
level = 3
atlas = ExtResource("1_lpc01")
sprite_size = Vector2(16, 16)
sprite_index = Vector2(10, 18)
sprite_offset = Vector2(13, 0)
scale = 3.0
flip_v = false
hitbox_size = Vector2(17, 5)
hitbox_offset = Vector2(13, 0)
angle_range = 135.0
base_speed = 0.75
base_damage = 2.0
